{
	"info": {
		"_postman_id": "28789ea6-12ae-4c91-be2a-18f81ae522e2",
		"name": "VeloxDemoDeployTracking",
		"schema": "https://schema.getpostman.com/json/collection/v2.1.0/collection.json",
		"_exporter_id": "25398892"
	},
	"item": [
		{
			"name": "create Tracking",
			"event": [
				{
					"listen": "test",
					"script": {
						"exec": [
							"pm.test(\"Status code is 201\", function () {",
							"    pm.response.to.have.status(201);",
							"});",
							"",
							"var data = JSON.parse(responseBody);",
							"",
							"var id = data.id;",
							"",
							"postman.setEnvironmentVariable(\"priceId\", id);"
						],
						"type": "text/javascript"
					}
				}
			],
			"request": {
				"auth": {
					"type": "noauth"
				},
				"method": "POST",
				"header": [],
				"body": {
					"mode": "raw",
					"raw": "{\n  \"categoryId\": \"{{categoryId}}\",\n  \"articleId\": \"{{articleId}}\",\n  \"userId\": \"{{userId}}\",\n  \"action\": \"{{action}}\",     \n  \"brand\": \"{{brand}}\"  \n}",
					"options": {
						"raw": {
							"language": "json"
						}
					}
				},
				"url": {
					"raw": "{{protocol}}://{{hostname}}:{{recommendationPort}}/{{recommendationContextpath}}/trackings",
					"protocol": "{{protocol}}",
					"host": [
						"{{hostname}}"
					],
					"port": "{{recommendationPort}}",
					"path": [
						"{{recommendationContextpath}}",
						"trackings"
					]
				}
			},
			"response": []
		}
	]
}