{
	"info": {
		"_postman_id": "6421367e-aacb-470d-a638-af617f663c34",
		"name": "VeloxDemoDeployCurrency",
		"schema": "https://schema.getpostman.com/json/collection/v2.1.0/collection.json"
	},
	"item": [
		{
			"name": "create currency",
			"event": [
				{
					"listen": "test",
					"script": {
						"exec": [
							"pm.test(\"Status code is 201\", function () {",
							"    pm.response.to.have.status(201);",
							"});",
							"",
							"var data = JSON.parse(responseBody);",
							"",
							"var id = data.id;",
							"",
							"postman.setEnvironmentVariable(\"priceId\", id);"
						],
						"type": "text/javascript"
					}
				}
			],
			"request": {
				"auth": {
					"type": "bearer",
					"bearer": [
						{
							"key": "token",
							"value": "{{token}}",
							"type": "string"
						}
					]
				},
				"method": "POST",
				"header": [],
				"body": {
					"mode": "raw",
					"raw": "{\n  \"isoCode\": \"{{isoCode}}\",\n  \"name\": \"{{name}}\",\n  \"symbol\": \"{{symbol}}\"\n}",
					"options": {
						"raw": {
							"language": "json"
						}
					}
				},
				"url": {
					"raw": "{{protocol}}://{{hostname}}:{{pricePort}}/{{priceContextpath}}/currencies",
					"protocol": "{{protocol}}",
					"host": [
						"{{hostname}}"
					],
					"port": "{{pricePort}}",
					"path": [
						"{{priceContextpath}}",
						"currencies"
					]
				}
			},
			"response": []
		}
	]
}